[{
    "title": "Заголовок теста с одним вопросом",
    "test-type": "control",
    "questions": [{
        "title": "Вопрос?",
        "multiple": false,
        "answers": [{
            "text": "ответ 1",
            "right": "false"
        }, {
            "text": "ответ 2 (правильный)",
            "right": "true"
        }, {
            "text": "ответ 3",
            "right": "false"
        }]
    }]
}, {
    "title": "Заголовок теста с несколькими вопросами",
    "test-type": "self_control",
    "questions": [{
        "title": "Первый вопрос?",
        "multiple": false,
        "answers": [{
            "text": "ответ 1",
            "right": "false"
        }, {
            "text": "ответ 2",
            "right": "false"
        }, {
            "text": "ответ 3 (правильный)",
            "right": "true"
        }]
    }, {
        "title": "Второй вопрос?",
        "multiple": false,
        "answers": [{
            "text": "ответ 1 (правильный)",
            "right": "true"
        }, {
            "text": "ответ 2",
            "right": "false"
        }, {
            "text": "ответ 3",
            "right": "false"
        }]
    }]
}]
